{
    "examples": [
        {
            "state": "false", 
            "trueans": "edge(x,y).\nedge(y,z).\nreach(A,B) :- edge(A,B).\nreach(A,C) :- reach(A,B),reach(B,C).\n", 
            "name": "poster_example", 
            "lastgood": "edge(x,y).\nedge(y,z).\nafasdg\n"
        }, 
        {
            "state": "true", 
            "trueans": "joke.\nhear_joke :- joke, not deaf.\n", 
            "name": "constant_example1", 
            "lastgood": "joke.\nhear_joke :- joke, not deaf.\n"
        }, 
        {
            "state": "true", 
            "trueans": "father(peter,adam).\nmother(cathy, adam).\nfather(tom,anne).\nfather(adam,bill).\nfather(adam,beth).\nmother(mary, anne).\nmother(anne, bill).\nmother(anne, beth).\n\n\n", 
            "name": "constant_example2", 
            "lastgood": "father(peter,adam).\nmother(cathy, adam).\nfather(tom,anne).\nfather(adam,bill).\nfather(adam,beth).\nmother(mary, anne).\nmother(anne, bill).\nmother(anne, beth).\n\n\n"
        }, 
        {
            "state": "true", 
            "trueans": "road(berlin, potsdam).\nroad(potsdam, werder).\nroad(werder, brandenburg).\nroad(berlin, potsdam).\nroad(potsdam, werder).\nroad(werder, brandenburg).\nroad(X,Y) :- road(Y,X).\n", 
            "name": "variable_example1", 
            "lastgood": "road(berlin, potsdam).\nroad(potsdam, werder).\nroad(werder, brandenburg).\nroad(berlin, potsdam).\nroad(potsdam, werder).\nroad(werder, brandenburg).\nroad(X,Y) :- road(Y,X).\n"
        }
    ]
}